{
  "test_profiles": ["Debug", "FaultyFiber", "FaultyAsan", "FaultyTsan"],
  "test_targets": ["unit_test", "stress_test"],
  "lint_files": ["thread_local.hpp", "rcu_lock.hpp", "spinlock.hpp", "hash_table.hpp"],
  "submit_files": ["rcu_lock.hpp", "spinlock.hpp", "hash_table.hpp"]
}
